{
  "name" : "vlk",
  "version-string" : "1.0.0",
  "builtin-baseline" : "e3b4728c3e1c390194bcff1b1def88685af6ea2e",
  "dependencies" : [ {
    "name" : "fmt",
    "version>=" : "10.1.1"
  }, {
    "name" : "freetype",
    "version>=" : "2.12.1#4"
  }, {
    "name" : "glfw3",
    "version>=" : "3.3.9"
  }, {
    "name" : "glm",
    "version>=" : "0.9.9.8#2"
  }, {
    "name" : "lua",
    "version>=" : "5.4.6",
    "features" : [ "tools" ]
  }, {
    "name" : "sol2",
    "version>=" : "3.3.1"
  }, {
    "name" : "spdlog",
    "version>=" : "1.12.0"
  }, {
    "name" : "vulkan",
    "version>=" : "1.3.268.0"
  }, {
    "name" : "stb",
    "version>=" : "2023-04-11#1"
  }, {
    "name" : "tinyobjloader",
    "version>=" : "2.0.0-rc9"
  } ]
}